(footprint "exposed_paste_autogen_only_outer"
	(version 20240108)
	(generator "kicad-footprint-generator")
	(layer "F.Cu")
	(attr smd)
	(pad "" smd custom
		(at -0.5 -0.5)
		(size 0.743245 0.743245)
		(layers "F.Paste")
		(options
			(clearance outline)
			(anchor circle)
		)
		(primitives
			(gr_poly
				(pts
					(xy -0.403113 -0.403113)
					(xy 0.403113 -0.403113)
					(xy 0.403113 0.314044)
					(xy 0.314044 0.403113)
					(xy -0.403113 0.403113)
				)
				(width 0)
			)
		)
	)
	(pad "" smd custom
		(at -0.5 0.5)
		(size 0.743245 0.743245)
		(layers "F.Paste")
		(options
			(clearance outline)
			(anchor circle)
		)
		(primitives
			(gr_poly
				(pts
					(xy -0.403113 -0.403113)
					(xy 0.314044 -0.403113)
					(xy 0.403113 -0.314044)
					(xy 0.403113 0.403113)
					(xy -0.403113 0.403113)
				)
				(width 0)
			)
		)
	)
	(pad "" smd custom
		(at 0.5 -0.5)
		(size 0.743245 0.743245)
		(layers "F.Paste")
		(options
			(clearance outline)
			(anchor circle)
		)
		(primitives
			(gr_poly
				(pts
					(xy -0.403113 -0.403113)
					(xy 0.403113 -0.403113)
					(xy 0.403113 0.403113)
					(xy -0.314044 0.403113)
					(xy -0.403113 0.314044)
				)
				(width 0)
			)
		)
	)
	(pad "" smd custom
		(at 0.5 0.5)
		(size 0.743245 0.743245)
		(layers "F.Paste")
		(options
			(clearance outline)
			(anchor circle)
		)
		(primitives
			(gr_poly
				(pts
					(xy -0.403113 -0.314044)
					(xy -0.314044 -0.403113)
					(xy 0.403113 -0.403113)
					(xy 0.403113 0.403113)
					(xy -0.403113 0.403113)
				)
				(width 0)
			)
		)
	)
	(pad "3" thru_hole circle
		(at 0 0)
		(size 0.6 0.6)
		(drill 0.3)
		(property pad_prop_heatsink)
		(layers "*.Cu")
		(remove_unused_layers no)
	)
	(pad "3" smd rect
		(at 0 0)
		(size 0.6 0.6)
		(property pad_prop_heatsink)
		(layers "B.Cu")
		(zone_connect 2)
	)
	(pad "3" smd rect
		(at 0 0)
		(size 2 2)
		(property pad_prop_heatsink)
		(layers "F.Cu" "F.Mask")
		(zone_connect 2)
	)
)
