(footprint "exposed_paste_autogen_autogen_inner_and_outer"
	(version 20240108)
	(generator "kicad-footprint-generator")
	(layer "F.Cu")
	(attr smd)
	(pad "" smd rect
		(at 1.75 1.5)
		(size 1.25499 0.83666)
		(layers "F.Paste")
	)
	(pad "" smd rect
		(at 1.75 2.5)
		(size 1.25499 0.83666)
		(layers "F.Paste")
	)
	(pad "" smd rect
		(at 1.75 3.5)
		(size 1.25499 0.83666)
		(layers "F.Paste")
	)
	(pad "" smd rect
		(at 1.75 4.5)
		(size 1.25499 0.83666)
		(layers "F.Paste")
	)
	(pad "" smd rect
		(at 1.75 5.5)
		(size 1.25499 0.83666)
		(layers "F.Paste")
	)
	(pad "" smd rect
		(at 1.75 6.5)
		(size 1.25499 0.83666)
		(layers "F.Paste")
	)
	(pad "" smd rect
		(at 1.75 7.5)
		(size 1.25499 0.83666)
		(layers "F.Paste")
	)
	(pad "" smd rect
		(at 1.75 8.5)
		(size 1.25499 0.83666)
		(layers "F.Paste")
	)
	(pad "" smd rect
		(at 3.25 1.5)
		(size 1.25499 0.83666)
		(layers "F.Paste")
	)
	(pad "" smd custom
		(at 3.25 2.5)
		(size 0.581034 0.581034)
		(layers "F.Paste")
		(options
			(clearance outline)
			(anchor circle)
		)
		(primitives
			(gr_poly
				(pts
					(xy -0.627495 -0.41833)
					(xy 0.627495 -0.41833)
					(xy 0.627495 0.05682)
					(xy 0.265985 0.41833)
					(xy -0.627495 0.41833)
				)
				(width 0)
			)
		)
	)
	(pad "" smd custom
		(at 3.25 3.5)
		(size 0.581034 0.581034)
		(layers "F.Paste")
		(options
			(clearance outline)
			(anchor circle)
		)
		(primitives
			(gr_poly
				(pts
					(xy -0.627495 -0.41833)
					(xy 0.265985 -0.41833)
					(xy 0.627495 -0.05682)
					(xy 0.627495 0.41833)
					(xy -0.627495 0.41833)
				)
				(width 0)
			)
		)
	)
	(pad "" smd custom
		(at 3.25 4.5)
		(size 0.581034 0.581034)
		(layers "F.Paste")
		(options
			(clearance outline)
			(anchor circle)
		)
		(primitives
			(gr_poly
				(pts
					(xy -0.627495 -0.41833)
					(xy 0.627495 -0.41833)
					(xy 0.627495 0.05682)
					(xy 0.265985 0.41833)
					(xy -0.627495 0.41833)
				)
				(width 0)
			)
		)
	)
	(pad "" smd custom
		(at 3.25 5.5)
		(size 0.581034 0.581034)
		(layers "F.Paste")
		(options
			(clearance outline)
			(anchor circle)
		)
		(primitives
			(gr_poly
				(pts
					(xy -0.627495 -0.41833)
					(xy 0.265985 -0.41833)
					(xy 0.627495 -0.05682)
					(xy 0.627495 0.41833)
					(xy -0.627495 0.41833)
				)
				(width 0)
			)
		)
	)
	(pad "" smd custom
		(at 3.25 6.5)
		(size 0.581034 0.581034)
		(layers "F.Paste")
		(options
			(clearance outline)
			(anchor circle)
		)
		(primitives
			(gr_poly
				(pts
					(xy -0.627495 -0.41833)
					(xy 0.627495 -0.41833)
					(xy 0.627495 0.05682)
					(xy 0.265985 0.41833)
					(xy -0.627495 0.41833)
				)
				(width 0)
			)
		)
	)
	(pad "" smd custom
		(at 3.25 7.5)
		(size 0.581034 0.581034)
		(layers "F.Paste")
		(options
			(clearance outline)
			(anchor circle)
		)
		(primitives
			(gr_poly
				(pts
					(xy -0.627495 -0.41833)
					(xy 0.265985 -0.41833)
					(xy 0.627495 -0.05682)
					(xy 0.627495 0.41833)
					(xy -0.627495 0.41833)
				)
				(width 0)
			)
		)
	)
	(pad "" smd rect
		(at 3.25 8.5)
		(size 1.25499 0.83666)
		(layers "F.Paste")
	)
	(pad "" smd rect
		(at 4.75 1.5)
		(size 1.25499 0.83666)
		(layers "F.Paste")
	)
	(pad "" smd custom
		(at 4.75 2.5)
		(size 0.581034 0.581034)
		(layers "F.Paste")
		(options
			(clearance outline)
			(anchor circle)
		)
		(primitives
			(gr_poly
				(pts
					(xy -0.627495 -0.41833)
					(xy 0.627495 -0.41833)
					(xy 0.627495 0.41833)
					(xy -0.265985 0.41833)
					(xy -0.627495 0.05682)
				)
				(width 0)
			)
		)
	)
	(pad "" smd custom
		(at 4.75 3.5)
		(size 0.581034 0.581034)
		(layers "F.Paste")
		(options
			(clearance outline)
			(anchor circle)
		)
		(primitives
			(gr_poly
				(pts
					(xy -0.627495 -0.05682)
					(xy -0.265985 -0.41833)
					(xy 0.627495 -0.41833)
					(xy 0.627495 0.41833)
					(xy -0.627495 0.41833)
				)
				(width 0)
			)
		)
	)
	(pad "" smd custom
		(at 4.75 4.5)
		(size 0.581034 0.581034)
		(layers "F.Paste")
		(options
			(clearance outline)
			(anchor circle)
		)
		(primitives
			(gr_poly
				(pts
					(xy -0.627495 -0.41833)
					(xy 0.627495 -0.41833)
					(xy 0.627495 0.41833)
					(xy -0.265985 0.41833)
					(xy -0.627495 0.05682)
				)
				(width 0)
			)
		)
	)
	(pad "" smd custom
		(at 4.75 5.5)
		(size 0.581034 0.581034)
		(layers "F.Paste")
		(options
			(clearance outline)
			(anchor circle)
		)
		(primitives
			(gr_poly
				(pts
					(xy -0.627495 -0.05682)
					(xy -0.265985 -0.41833)
					(xy 0.627495 -0.41833)
					(xy 0.627495 0.41833)
					(xy -0.627495 0.41833)
				)
				(width 0)
			)
		)
	)
	(pad "" smd custom
		(at 4.75 6.5)
		(size 0.581034 0.581034)
		(layers "F.Paste")
		(options
			(clearance outline)
			(anchor circle)
		)
		(primitives
			(gr_poly
				(pts
					(xy -0.627495 -0.41833)
					(xy 0.627495 -0.41833)
					(xy 0.627495 0.41833)
					(xy -0.265985 0.41833)
					(xy -0.627495 0.05682)
				)
				(width 0)
			)
		)
	)
	(pad "" smd custom
		(at 4.75 7.5)
		(size 0.581034 0.581034)
		(layers "F.Paste")
		(options
			(clearance outline)
			(anchor circle)
		)
		(primitives
			(gr_poly
				(pts
					(xy -0.627495 -0.05682)
					(xy -0.265985 -0.41833)
					(xy 0.627495 -0.41833)
					(xy 0.627495 0.41833)
					(xy -0.627495 0.41833)
				)
				(width 0)
			)
		)
	)
	(pad "" smd rect
		(at 4.75 8.5)
		(size 1.25499 0.83666)
		(layers "F.Paste")
	)
	(pad "" smd rect
		(at 6.25 1.5)
		(size 1.25499 0.83666)
		(layers "F.Paste")
	)
	(pad "" smd custom
		(at 6.25 2.5)
		(size 0.581034 0.581034)
		(layers "F.Paste")
		(options
			(clearance outline)
			(anchor circle)
		)
		(primitives
			(gr_poly
				(pts
					(xy -0.627495 -0.41833)
					(xy 0.627495 -0.41833)
					(xy 0.627495 0.05682)
					(xy 0.265985 0.41833)
					(xy -0.627495 0.41833)
				)
				(width 0)
			)
		)
	)
	(pad "" smd custom
		(at 6.25 3.5)
		(size 0.581034 0.581034)
		(layers "F.Paste")
		(options
			(clearance outline)
			(anchor circle)
		)
		(primitives
			(gr_poly
				(pts
					(xy -0.627495 -0.41833)
					(xy 0.265985 -0.41833)
					(xy 0.627495 -0.05682)
					(xy 0.627495 0.41833)
					(xy -0.627495 0.41833)
				)
				(width 0)
			)
		)
	)
	(pad "" smd custom
		(at 6.25 4.5)
		(size 0.581034 0.581034)
		(layers "F.Paste")
		(options
			(clearance outline)
			(anchor circle)
		)
		(primitives
			(gr_poly
				(pts
					(xy -0.627495 -0.41833)
					(xy 0.627495 -0.41833)
					(xy 0.627495 0.05682)
					(xy 0.265985 0.41833)
					(xy -0.627495 0.41833)
				)
				(width 0)
			)
		)
	)
	(pad "" smd custom
		(at 6.25 5.5)
		(size 0.581034 0.581034)
		(layers "F.Paste")
		(options
			(clearance outline)
			(anchor circle)
		)
		(primitives
			(gr_poly
				(pts
					(xy -0.627495 -0.41833)
					(xy 0.265985 -0.41833)
					(xy 0.627495 -0.05682)
					(xy 0.627495 0.41833)
					(xy -0.627495 0.41833)
				)
				(width 0)
			)
		)
	)
	(pad "" smd custom
		(at 6.25 6.5)
		(size 0.581034 0.581034)
		(layers "F.Paste")
		(options
			(clearance outline)
			(anchor circle)
		)
		(primitives
			(gr_poly
				(pts
					(xy -0.627495 -0.41833)
					(xy 0.627495 -0.41833)
					(xy 0.627495 0.05682)
					(xy 0.265985 0.41833)
					(xy -0.627495 0.41833)
				)
				(width 0)
			)
		)
	)
	(pad "" smd custom
		(at 6.25 7.5)
		(size 0.581034 0.581034)
		(layers "F.Paste")
		(options
			(clearance outline)
			(anchor circle)
		)
		(primitives
			(gr_poly
				(pts
					(xy -0.627495 -0.41833)
					(xy 0.265985 -0.41833)
					(xy 0.627495 -0.05682)
					(xy 0.627495 0.41833)
					(xy -0.627495 0.41833)
				)
				(width 0)
			)
		)
	)
	(pad "" smd rect
		(at 6.25 8.5)
		(size 1.25499 0.83666)
		(layers "F.Paste")
	)
	(pad "" smd rect
		(at 7.75 1.5)
		(size 1.25499 0.83666)
		(layers "F.Paste")
	)
	(pad "" smd custom
		(at 7.75 2.5)
		(size 0.581034 0.581034)
		(layers "F.Paste")
		(options
			(clearance outline)
			(anchor circle)
		)
		(primitives
			(gr_poly
				(pts
					(xy -0.627495 -0.41833)
					(xy 0.627495 -0.41833)
					(xy 0.627495 0.41833)
					(xy -0.265985 0.41833)
					(xy -0.627495 0.05682)
				)
				(width 0)
			)
		)
	)
	(pad "" smd custom
		(at 7.75 3.5)
		(size 0.581034 0.581034)
		(layers "F.Paste")
		(options
			(clearance outline)
			(anchor circle)
		)
		(primitives
			(gr_poly
				(pts
					(xy -0.627495 -0.05682)
					(xy -0.265985 -0.41833)
					(xy 0.627495 -0.41833)
					(xy 0.627495 0.41833)
					(xy -0.627495 0.41833)
				)
				(width 0)
			)
		)
	)
	(pad "" smd custom
		(at 7.75 4.5)
		(size 0.581034 0.581034)
		(layers "F.Paste")
		(options
			(clearance outline)
			(anchor circle)
		)
		(primitives
			(gr_poly
				(pts
					(xy -0.627495 -0.41833)
					(xy 0.627495 -0.41833)
					(xy 0.627495 0.41833)
					(xy -0.265985 0.41833)
					(xy -0.627495 0.05682)
				)
				(width 0)
			)
		)
	)
	(pad "" smd custom
		(at 7.75 5.5)
		(size 0.581034 0.581034)
		(layers "F.Paste")
		(options
			(clearance outline)
			(anchor circle)
		)
		(primitives
			(gr_poly
				(pts
					(xy -0.627495 -0.05682)
					(xy -0.265985 -0.41833)
					(xy 0.627495 -0.41833)
					(xy 0.627495 0.41833)
					(xy -0.627495 0.41833)
				)
				(width 0)
			)
		)
	)
	(pad "" smd custom
		(at 7.75 6.5)
		(size 0.581034 0.581034)
		(layers "F.Paste")
		(options
			(clearance outline)
			(anchor circle)
		)
		(primitives
			(gr_poly
				(pts
					(xy -0.627495 -0.41833)
					(xy 0.627495 -0.41833)
					(xy 0.627495 0.41833)
					(xy -0.265985 0.41833)
					(xy -0.627495 0.05682)
				)
				(width 0)
			)
		)
	)
	(pad "" smd custom
		(at 7.75 7.5)
		(size 0.581034 0.581034)
		(layers "F.Paste")
		(options
			(clearance outline)
			(anchor circle)
		)
		(primitives
			(gr_poly
				(pts
					(xy -0.627495 -0.05682)
					(xy -0.265985 -0.41833)
					(xy 0.627495 -0.41833)
					(xy 0.627495 0.41833)
					(xy -0.627495 0.41833)
				)
				(width 0)
			)
		)
	)
	(pad "" smd rect
		(at 7.75 8.5)
		(size 1.25499 0.83666)
		(layers "F.Paste")
	)
	(pad "" smd rect
		(at 9.25 1.5)
		(size 1.25499 0.83666)
		(layers "F.Paste")
	)
	(pad "" smd custom
		(at 9.25 2.5)
		(size 0.581034 0.581034)
		(layers "F.Paste")
		(options
			(clearance outline)
			(anchor circle)
		)
		(primitives
			(gr_poly
				(pts
					(xy -0.627495 -0.41833)
					(xy 0.627495 -0.41833)
					(xy 0.627495 0.05682)
					(xy 0.265985 0.41833)
					(xy -0.627495 0.41833)
				)
				(width 0)
			)
		)
	)
	(pad "" smd custom
		(at 9.25 3.5)
		(size 0.581034 0.581034)
		(layers "F.Paste")
		(options
			(clearance outline)
			(anchor circle)
		)
		(primitives
			(gr_poly
				(pts
					(xy -0.627495 -0.41833)
					(xy 0.265985 -0.41833)
					(xy 0.627495 -0.05682)
					(xy 0.627495 0.41833)
					(xy -0.627495 0.41833)
				)
				(width 0)
			)
		)
	)
	(pad "" smd custom
		(at 9.25 4.5)
		(size 0.581034 0.581034)
		(layers "F.Paste")
		(options
			(clearance outline)
			(anchor circle)
		)
		(primitives
			(gr_poly
				(pts
					(xy -0.627495 -0.41833)
					(xy 0.627495 -0.41833)
					(xy 0.627495 0.05682)
					(xy 0.265985 0.41833)
					(xy -0.627495 0.41833)
				)
				(width 0)
			)
		)
	)
	(pad "" smd custom
		(at 9.25 5.5)
		(size 0.581034 0.581034)
		(layers "F.Paste")
		(options
			(clearance outline)
			(anchor circle)
		)
		(primitives
			(gr_poly
				(pts
					(xy -0.627495 -0.41833)
					(xy 0.265985 -0.41833)
					(xy 0.627495 -0.05682)
					(xy 0.627495 0.41833)
					(xy -0.627495 0.41833)
				)
				(width 0)
			)
		)
	)
	(pad "" smd custom
		(at 9.25 6.5)
		(size 0.581034 0.581034)
		(layers "F.Paste")
		(options
			(clearance outline)
			(anchor circle)
		)
		(primitives
			(gr_poly
				(pts
					(xy -0.627495 -0.41833)
					(xy 0.627495 -0.41833)
					(xy 0.627495 0.05682)
					(xy 0.265985 0.41833)
					(xy -0.627495 0.41833)
				)
				(width 0)
			)
		)
	)
	(pad "" smd custom
		(at 9.25 7.5)
		(size 0.581034 0.581034)
		(layers "F.Paste")
		(options
			(clearance outline)
			(anchor circle)
		)
		(primitives
			(gr_poly
				(pts
					(xy -0.627495 -0.41833)
					(xy 0.265985 -0.41833)
					(xy 0.627495 -0.05682)
					(xy 0.627495 0.41833)
					(xy -0.627495 0.41833)
				)
				(width 0)
			)
		)
	)
	(pad "" smd rect
		(at 9.25 8.5)
		(size 1.25499 0.83666)
		(layers "F.Paste")
	)
	(pad "" smd rect
		(at 10.75 1.5)
		(size 1.25499 0.83666)
		(layers "F.Paste")
	)
	(pad "" smd custom
		(at 10.75 2.5)
		(size 0.581034 0.581034)
		(layers "F.Paste")
		(options
			(clearance outline)
			(anchor circle)
		)
		(primitives
			(gr_poly
				(pts
					(xy -0.627495 -0.41833)
					(xy 0.627495 -0.41833)
					(xy 0.627495 0.41833)
					(xy -0.265985 0.41833)
					(xy -0.627495 0.05682)
				)
				(width 0)
			)
		)
	)
	(pad "" smd custom
		(at 10.75 3.5)
		(size 0.581034 0.581034)
		(layers "F.Paste")
		(options
			(clearance outline)
			(anchor circle)
		)
		(primitives
			(gr_poly
				(pts
					(xy -0.627495 -0.05682)
					(xy -0.265985 -0.41833)
					(xy 0.627495 -0.41833)
					(xy 0.627495 0.41833)
					(xy -0.627495 0.41833)
				)
				(width 0)
			)
		)
	)
	(pad "" smd custom
		(at 10.75 4.5)
		(size 0.581034 0.581034)
		(layers "F.Paste")
		(options
			(clearance outline)
			(anchor circle)
		)
		(primitives
			(gr_poly
				(pts
					(xy -0.627495 -0.41833)
					(xy 0.627495 -0.41833)
					(xy 0.627495 0.41833)
					(xy -0.265985 0.41833)
					(xy -0.627495 0.05682)
				)
				(width 0)
			)
		)
	)
	(pad "" smd custom
		(at 10.75 5.5)
		(size 0.581034 0.581034)
		(layers "F.Paste")
		(options
			(clearance outline)
			(anchor circle)
		)
		(primitives
			(gr_poly
				(pts
					(xy -0.627495 -0.05682)
					(xy -0.265985 -0.41833)
					(xy 0.627495 -0.41833)
					(xy 0.627495 0.41833)
					(xy -0.627495 0.41833)
				)
				(width 0)
			)
		)
	)
	(pad "" smd custom
		(at 10.75 6.5)
		(size 0.581034 0.581034)
		(layers "F.Paste")
		(options
			(clearance outline)
			(anchor circle)
		)
		(primitives
			(gr_poly
				(pts
					(xy -0.627495 -0.41833)
					(xy 0.627495 -0.41833)
					(xy 0.627495 0.41833)
					(xy -0.265985 0.41833)
					(xy -0.627495 0.05682)
				)
				(width 0)
			)
		)
	)
	(pad "" smd custom
		(at 10.75 7.5)
		(size 0.581034 0.581034)
		(layers "F.Paste")
		(options
			(clearance outline)
			(anchor circle)
		)
		(primitives
			(gr_poly
				(pts
					(xy -0.627495 -0.05682)
					(xy -0.265985 -0.41833)
					(xy 0.627495 -0.41833)
					(xy 0.627495 0.41833)
					(xy -0.627495 0.41833)
				)
				(width 0)
			)
		)
	)
	(pad "" smd rect
		(at 10.75 8.5)
		(size 1.25499 0.83666)
		(layers "F.Paste")
	)
	(pad "" smd rect
		(at 12.25 1.5)
		(size 1.25499 0.83666)
		(layers "F.Paste")
	)
	(pad "" smd rect
		(at 12.25 2.5)
		(size 1.25499 0.83666)
		(layers "F.Paste")
	)
	(pad "" smd rect
		(at 12.25 3.5)
		(size 1.25499 0.83666)
		(layers "F.Paste")
	)
	(pad "" smd rect
		(at 12.25 4.5)
		(size 1.25499 0.83666)
		(layers "F.Paste")
	)
	(pad "" smd rect
		(at 12.25 5.5)
		(size 1.25499 0.83666)
		(layers "F.Paste")
	)
	(pad "" smd rect
		(at 12.25 6.5)
		(size 1.25499 0.83666)
		(layers "F.Paste")
	)
	(pad "" smd rect
		(at 12.25 7.5)
		(size 1.25499 0.83666)
		(layers "F.Paste")
	)
	(pad "" smd rect
		(at 12.25 8.5)
		(size 1.25499 0.83666)
		(layers "F.Paste")
	)
	(pad "3" thru_hole circle
		(at 4 3)
		(size 0.8 0.8)
		(drill 0.3)
		(property pad_prop_heatsink)
		(layers "*.Cu")
		(remove_unused_layers no)
	)
	(pad "3" thru_hole circle
		(at 4 5)
		(size 0.8 0.8)
		(drill 0.3)
		(property pad_prop_heatsink)
		(layers "*.Cu")
		(remove_unused_layers no)
	)
	(pad "3" thru_hole circle
		(at 4 7)
		(size 0.8 0.8)
		(drill 0.3)
		(property pad_prop_heatsink)
		(layers "*.Cu")
		(remove_unused_layers no)
	)
	(pad "3" thru_hole circle
		(at 7 3)
		(size 0.8 0.8)
		(drill 0.3)
		(property pad_prop_heatsink)
		(layers "*.Cu")
		(remove_unused_layers no)
	)
	(pad "3" thru_hole circle
		(at 7 5)
		(size 0.8 0.8)
		(drill 0.3)
		(property pad_prop_heatsink)
		(layers "*.Cu")
		(remove_unused_layers no)
	)
	(pad "3" smd rect
		(at 7 5)
		(size 6.8 4.8)
		(property pad_prop_heatsink)
		(layers "B.Cu")
		(zone_connect 2)
	)
	(pad "3" smd rect
		(at 7 5)
		(size 12 8)
		(property pad_prop_heatsink)
		(layers "F.Cu" "F.Mask")
		(zone_connect 2)
	)
	(pad "3" thru_hole circle
		(at 7 7)
		(size 0.8 0.8)
		(drill 0.3)
		(property pad_prop_heatsink)
		(layers "*.Cu")
		(remove_unused_layers no)
	)
	(pad "3" thru_hole circle
		(at 10 3)
		(size 0.8 0.8)
		(drill 0.3)
		(property pad_prop_heatsink)
		(layers "*.Cu")
		(remove_unused_layers no)
	)
	(pad "3" thru_hole circle
		(at 10 5)
		(size 0.8 0.8)
		(drill 0.3)
		(property pad_prop_heatsink)
		(layers "*.Cu")
		(remove_unused_layers no)
	)
	(pad "3" thru_hole circle
		(at 10 7)
		(size 0.8 0.8)
		(drill 0.3)
		(property pad_prop_heatsink)
		(layers "*.Cu")
		(remove_unused_layers no)
	)
)
